…
``` r
wp_prop <-
  wp_data |> 
  group_by(city_state) |> 
  summarize(total_homicides = n(),
            open_homicides = sum(disposition %in% c("Closed without arrest", "Open/No arrest"))) |> 
  mutate(
    prop_unsolved = open_homicides/total_homicides
  )

wp_prop
```

    ## # A tibble: 51 × 4
    ##    city_state      total_homicides open_homicides prop_unsolved
    ##    <chr>                     <int>          <int>         <dbl>
    ##  1 Albuquerque, NM             378            146         0.386
    ##  2 Atlanta, GA                 973            373         0.383
    ##  3 Baltimore, MD              2827           1825         0.646
    ##  4 Baton Rouge, LA             424            196         0.462
    ##  5 Birmingham, AL              800            347         0.434
    ##  6 Boston, MA                  614            310         0.505
    ##  7 Buffalo, NY                 521            319         0.612
    ##  8 Charlotte, NC               687            206         0.300
    ##  9 Chicago, IL                5535           4073         0.736
    ## 10 Cincinnati, OH              694            309         0.445
    ## # ℹ 41 more rows
…
